{
    "autosu": true,
    "colorscheme": "simple",
    "pluginchannels": [
        "https://raw.githubusercontent.com/micro-editor/plugin-channel/master/channel.json"
    ],
    "pluginrepos": [],
    "relativeruler": true,
    "rmtrailingws": true,
    "ruler": false,
    "savecursor": true,
    "saveundo": true,
    "softwrap": true,
    "statusformatl": " $(filename)",
    "statusformatr": "$(line):$(col) "
}
